…
```
## The following objects are masked from 'package:base':
## 
##     intersect, setdiff, setequal, union
```

```r
df %>%
  group_by(date) %>%
  summarise(n = n())
```

```
## # A tibble: 61 × 2
##          date     n
##        <date> <int>
## 1  2012-10-01   288
## 2  2012-10-02   288
## 3  2012-10-03   288
## 4  2012-10-04   288
## 5  2012-10-05   288
## 6  2012-10-06   288
## 7  2012-10-07   288
## 8  2012-10-08   288
## 9  2012-10-09   288
## 10 2012-10-10   288
## # ... with 51 more rows
```
…
